cms\der\sn\domain\repository\UserRepository.class
cms\der\sn\config\MvcConfigurer.class
cms\der\sn\service\service\impl\RoleServiceImpl.class
cms\der\sn\service\mapper\impl\UserToUserRowMapperImpl.class
cms\der\sn\service\mapper\UserToUserRowMapper.class
cms\der\sn\service\service\impl\MailSenderServiceImpl.class
cms\der\sn\service\model\user\UserFormUpdatePassword.class
cms\der\sn\service\service\UserService.class
cms\der\sn\service\mapper\impl\UserFormUpdatePasswordToUserMapperImpl.class
cms\der\sn\service\mapper\UserProfileToUserMapper.class
cms\der\sn\domain\repository\RoleRepository.class
cms\der\sn\service\model\user\UserForm.class
cms\der\sn\service\validator\UserFormValidator.class
cms\der\sn\service\mapper\UserFormToUserMapper.class
cms\der\sn\service\service\impl\GeneratePasswordService.class
cms\der\sn\service\service\impl\UserServiceImpl.class
cms\der\sn\service\mapper\UserFormUpdatePasswordToUserMapper.class
cms\der\sn\service\validator\UserFormUpdatePasswordValidator.class
cms\der\sn\service\model\user\UserProfile.class
cms\der\sn\config\SecurityConfiguration.class
cms\der\sn\service\mapper\UserToUserProfileMapper.class
cms\der\sn\service\mapper\impl\UserProfileToUserMapperImpl.class
cms\der\sn\view\CustomView.class
cms\der\sn\config\CustomBean.class
cms\der\sn\service\controller\LoginController.class
cms\der\sn\service\service\RoleService.class
cms\der\sn\domain\entity\Role.class
cms\der\sn\service\model\user\UserRow.class
cms\der\sn\service\model\user\UserList.class
cms\der\sn\service\mapper\impl\UserFormToUserMapperImpl.class
cms\der\sn\service\mapper\impl\UserToUserProfileMapperImpl.class
cms\der\sn\DerApplication.class
cms\der\sn\service\controller\UserController.class
cms\der\sn\service\service\MailSenderService.class
cms\der\sn\domain\entity\User.class
